Análisis Base de Datos Simplificada
…
years-smoking
anios_fumo
Cantidad de años que fumo
Discreta

Primero cargamos los datos, luego observamos como los trata R.

## [1] 0

## [1] 139

## # A tibble: 406 x 32
##    healthCode1 medTimepoint `F0semitoneFrom~ `F0semitoneFrom~ `F0semitoneFrom~
##    <chr>       <chr>                   <dbl>            <dbl>            <dbl>
##  1 ae49bf2a-8~ I don't tak~             23.7          0.563               14.3
##  2 ae49bf2a-8~ I don't tak~             23.7          0.563               14.3
##  3 ae49bf2a-8~ I don't tak~             23.7          0.563               14.3
##  4 ae49bf2a-8~ I don't tak~             22.6          0.0813              22.1
##  5 4a318f75-f~ Another time             31.0          0.0165              30.7
##  6 4a318f75-f~ Another time             31.0          0.0165              30.7
##  7 84cdec84-5~ Another time             36.3          0.00818             36.1
##  8 84cdec84-5~ Another time             36.3          0.00818             36.1
##  9 84cdec84-5~ Another time             36.3          0.00818             36.1
## 10 e8b3b9a4-a~ Another time             21.7          0.239               18.0
## # ... with 396 more rows, and 27 more variables:
## #   `F0semitoneFrom27#5Hz_sma3nz_percentile50#0` <dbl>,
## #   `F0semitoneFrom27#5Hz_sma3nz_percentile80#0` <dbl>,
## #   `F0semitoneFrom27#5Hz_sma3nz_pctlrange0-2` <dbl>,
## #   `F0semitoneFrom27#5Hz_sma3nz_meanRisingSlope` <dbl>,
## #   `F0semitoneFrom27#5Hz_sma3nz_stddevRisingSlope` <dbl>,
## #   `F0semitoneFrom27#5Hz_sma3nz_meanFallingSlope` <dbl>,
## #   `F0semitoneFrom27#5Hz_sma3nz_stddevFallingSlope` <dbl>,
## #   jitterLocal_sma3nz_amean <dbl>, jitterLocal_sma3nz_stddevNorm <dbl>,
…
